\relax 
\providecommand\zref@newlabel[2]{}
\providecommand\hyper@newdestlabel[2]{}
\catcode `"\active 
\catcode `<\active 
\catcode `>\active 
\@nameuse{es@quoting}
\providecommand\HyperFirstAtBeginDocument{\AtBeginDocument}
\HyperFirstAtBeginDocument{\ifx\hyper@anchor\@undefined
\global\let\oldcontentsline\contentsline
\gdef\contentsline#1#2#3#4{\oldcontentsline{#1}{#2}{#3}}
\global\let\oldnewlabel\newlabel
\gdef\newlabel#1#2{\newlabelxx{#1}#2}
\gdef\newlabelxx#1#2#3#4#5#6{\oldnewlabel{#1}{{#2}{#3}}}
\AtEndDocument{\ifx\hyper@anchor\@undefined
\let\contentsline\oldcontentsline
\let\newlabel\oldnewlabel
\fi}
\fi}
\global\let\hyper@last\relax 
\gdef\HyperFirstAtBeginDocument#1{#1}
\providecommand\HyField@AuxAddToFields[1]{}
\providecommand\HyField@AuxAddToCoFields[2]{}
\select@language{spanish}
\@writefile{toc}{\select@language{spanish}}
\@writefile{lof}{\select@language{spanish}}
\@writefile{lot}{\select@language{spanish}}
\@writefile{toc}{\contentsline {section}{\numberline {1}Introducci\IeC {\'o}n}{3}{section.1}}
\@writefile{toc}{\contentsline {paragraph}{Definici\IeC {\'o}n de Base de Datos}{3}{section*.2}}
\@writefile{toc}{\contentsline {section}{\numberline {2}Objetivos de una Base de Datos}{3}{section.2}}
\@writefile{toc}{\contentsline {section}{\numberline {3}Arquitectura de las Bases de Datos}{4}{section.3}}
\@writefile{toc}{\contentsline {section}{\numberline {4}Sistemas gestores de Bases de Datos -- SGDB}{4}{section.4}}
\@writefile{toc}{\contentsline {subsection}{\numberline {4.1}Componentes}{4}{subsection.4.1}}
\@writefile{toc}{\contentsline {section}{\numberline {5}Modelos de Bases de Datos}{4}{section.5}}
\@writefile{toc}{\contentsline {subsection}{\numberline {5.1}Modelo de datos Jer\IeC {\'a}rquico}{4}{subsection.5.1}}
\@writefile{toc}{\contentsline {subsection}{\numberline {5.2}Modelo de datos en Red}{4}{subsection.5.2}}
\@writefile{toc}{\contentsline {subsection}{\numberline {5.3}Modelo de datos Relacional}{4}{subsection.5.3}}
\@writefile{toc}{\contentsline {section}{\numberline {6}Arquitectura Cliente/Servidor}{4}{section.6}}
